{
  "name": "minar",
  "version": "1.0.4",
  "description": "The mbed OS scheduler.",
  "repository": {
    "type": "git",
    "url": "git@github.com:ARMmbed/minar.git"
  },
  "homepage": "https://github.com/ARMmbed/minar",
  "bugs": {
    "url": "http://github.com/ARMmbed/minar/issues",
    "email": "project@hostname.com"
  },
  "author": "James Crosby <James.Crosby@arm.com>",
  "licenses": [
    {
      "url": "https://spdx.org/licenses/Apache-2.0",
      "type": "Apache-2.0"
    }
  ],
  "dependencies": {
    "compiler-polyfill": "^1.1.0",
    "minar-platform": "^1.0.0",
    "core-util": "^1.0.0"
  },
  "scripts": {
    "testReporter": [
      "mbedgt",
      "--digest",
      "stdin",
      "-v",
      "-V"
    ]
  },
  "keywords": [
    "mbed",
    "mbed-official"
  ]
}
